id;image_id;alt;src;description
1;43385;Chief International;Saudi Riyal;indexing back-end Front-line
2;97788;fuchsia AI;Supervisor Harbors;dot-com
3;81112;JSON;Credit Card Account fuchsia Lake;Wooden Health open-source
4;86867;quantify Books;Pre-emptive vortals interface;Plastic Producer Central
5;55611;Mobility intangible AI;Metrics;Up-sized West Virginia
6;69265;synergize;RSS Solomon Islands program;open system
7;26433;Cotton;Ireland Optimization;interface Croatian Kuna Ergonomic
8;72001;24/365 Refined;Mouse Handmade;invoice deposit
9;21268;holistic Pitcairn Islands Gorgeous Frozen Mouse;metrics Handmade New Leu;Architect Intelligent Frozen Pants magnetic
10;71508;Avon calculate gold;redundant;driver
