{
    "fluentMethods": true,
    "clientRootFolder": "",
    "relationships": [
        {
            "relationshipName": "user",
            "otherEntityName": "user",
            "relationshipType": "many-to-one",
            "otherEntityField": "login",
            "ownerSide": true,
            "otherEntityRelationshipName": "company"
        },
        {
            "relationshipName": "product",
            "otherEntityName": "product",
            "relationshipType": "one-to-many",
            "otherEntityRelationshipName": "company"
        }
    ],
    "fields": [
        {
            "fieldName": "name",
            "fieldType": "String",
            "fieldValidateRules": [
                "required"
            ]
        },
        {
            "fieldName": "vatNumber",
            "fieldType": "String",
            "fieldValidateRules": [
                "required"
            ]
        },
        {
            "fieldName": "creationDate",
            "fieldType": "LocalDate"
        },
        {
            "fieldName": "address1",
            "fieldType": "String",
            "fieldValidateRules": [
                "required"
            ]
        },
        {
            "fieldName": "address2",
            "fieldType": "String"
        },
        {
            "fieldName": "telephoneNumber",
            "fieldType": "String"
        },
        {
            "fieldName": "ownerName",
            "fieldType": "String",
            "fieldValidateRules": [
                "required",
                "minlength"
            ],
            "fieldValidateRulesMinlength": "3"
        },
        {
            "fieldName": "country",
            "fieldType": "String",
            "fieldValidateRules": [
                "required"
            ]
        },
        {
            "fieldName": "postalCode",
            "fieldType": "String",
            "fieldValidateRules": [
                "required",
                "minlength"
            ],
            "fieldValidateRulesMinlength": "5"
        },
        {
            "fieldName": "province",
            "fieldType": "String",
            "fieldValidateRules": [
                "required",
                "maxlength"
            ],
            "fieldValidateRulesMaxlength": "2"
        }
    ],
    "changelogDate": "20200316175637",
    "dto": "mapstruct",
    "searchEngine": false,
    "service": "serviceClass",
    "entityTableName": "company",
    "databaseType": "sql",
    "jpaMetamodelFiltering": true,
    "pagination": "infinite-scroll",
    "readOnly": false
}
