{
    "fluentMethods": true,
    "clientRootFolder": "",
    "relationships": [
        {
            "relationshipName": "product",
            "otherEntityName": "product",
            "relationshipType": "many-to-one",
            "relationshipValidateRules": [],
            "otherEntityField": "id"
        }
    ],
    "fields": [
        {
            "fieldName": "imageId",
            "fieldType": "Long",
            "fieldValidateRules": [
                "required",
                "unique"
            ]
        },
        {
            "fieldName": "alt",
            "fieldType": "String",
            "fieldValidateRules": [
                "minlength"
            ],
            "fieldValidateRulesMinlength": "3"
        },
        {
            "fieldName": "src",
            "fieldType": "String",
            "fieldValidateRules": [
                "required"
            ]
        },
        {
            "fieldName": "description",
            "fieldType": "String"
        }
    ],
    "changelogDate": "20200803130227",
    "dto": "mapstruct",
    "searchEngine": false,
    "service": "serviceClass",
    "entityTableName": "image",
    "databaseType": "sql",
    "readOnly": false,
    "jpaMetamodelFiltering": true,
    "pagination": "pagination"
}
